Data, Code and Visualization: Visualizing Chess Data With ggplot
…
library(tidyverse)
library(ggplot2)
library(rchess)

theme_set(
  theme_void(base_family = "Segoe UI") + 
    theme(legend.position = "none")
  )

data(chesswc)

chesswc

# A tibble: 1,266 x 11
   event site  date       round white black result whiteelo blackelo
   <chr> <chr> <date>     <dbl> <chr> <chr> <chr>     <int>    <int>
 1 FIDE~ Khan~ 2011-08-28   1.1 Kaab~ Karj~ 0-1        2344     2788
 2 FIDE~ Khan~ 2011-08-28   1.1 Ivan~ Stee~ 1-0        2768     2362
 3 FIDE~ Khan~ 2011-08-28   1.1 Ibra~ Mame~ 0-1        2402     2765
 4 FIDE~ Khan~ 2011-08-28   1.1 Pono~ Gwaz~ 1-0        2764     2434
 5 FIDE~ Khan~ 2011-08-28   1.1 Hans~ Gash~ 0-1        2449     2760
 6 FIDE~ Khan~ 2011-08-28   1.1 Gris~ Genb~ 1-0        2746     2452
 7 FIDE~ Khan~ 2011-08-28   1.1 De L~ Radj~ 0-1        2477     2744
 8 FIDE~ Khan~ 2011-08-28   1.1 Kams~ Di B~ 1-0        2741     2480
 9 FIDE~ Khan~ 2011-08-28   1.1 Lima~ Svid~ 1/2-1~     2493     2739
10 FIDE~ Khan~ 2011-08-28   1.1 Jako~ Sale~ 1-0        2736     2493
# ... with 1,256 more rows, and 2 more variables: eco <chr>,
#   pgn <chr>
…
[1] "1. d4 Nf6 2. Nf3 d5 3. c4 e6 4. e3 Be7 5. Nbd2 O-O"

Compare the previous string with the first 10 rows of the history_detail()

chss <- Chess$new()
chss$load_pgn(pgn)

[1] TRUE

chss$history_detail() %>%
  arrange(number_move)

# A tibble: 39 x 8
   piece from  to    number_move piece_number_mo~ status
   <chr> <chr> <chr>       <int>            <int> <chr> 
 1 d2 P~ d2    d4              1                1 <NA>  
 2 g8 K~ g8    f6              2                1 game ~
 3 g1 K~ g1    f3              3                1 <NA>  
 4 d7 P~ d7    d5              4                1 <NA>  
 5 c2 P~ c2    c4              5                1 captu~
 6 e7 P~ e7    e6              6                1 game ~
 7 e2 P~ e2    e3              7                1 game ~
 8 f8 B~ f8    e7              8                1 <NA>  
 9 b1 K~ b1    d2              9                1 <NA>  
10 Blac~ e8    g8             10                1 game ~
# ... with 29 more rows, and 2 more variables:
#   number_move_capture <int>, captured_by <chr>
…
# library(doParallel)
# workers <- makeCluster(parallel::detectCores())
# registerDoParallel(workers)
# moves <- plyr::llply(chesswc %>% pull(pgn), function(p) {
#   chss <- Chess$new()
#   chss$load_pgn(p)
#   chss$history_detail()
#   },  .parallel = TRUE, .paropts = list(.packages = c("rchess")))

dfmoves

# A tibble: 41,731 x 9
   game_id piece from  to    number_move piece_number_mo~ status
     <int> <chr> <chr> <chr>       <int>            <int> <chr> 
 1       1 a1 R~ a1    c1             57                1 <NA>  
 2       1 a1 R~ c1    h1             65                2 <NA>  
 3       1 a1 R~ h1    h5             73                3 <NA>  
 4       1 a1 R~ h5    h7             89                4 <NA>  
 5       1 a1 R~ h7    e7             95                5 captu~
 6       1 b1 K~ b1    d2             13                1 <NA>  
 7       1 b1 K~ d2    f1             69                2 <NA>  
 8       1 b1 K~ f1    e3             75                3 captu~
 9       1 c1 B~ c1    b2             31                1 <NA>  
10       1 c1 B~ b2    c1             87                2 game ~
# ... with 41,721 more rows, and 2 more variables:
#   number_move_capture <int>, captured_by <chr>

The dfmoves data frame will be the heart from all these plots due have a lot of information and it is easy to consume.

Piece Movements

To try replicate the result its necessary the data to represent (and then plot) the board. In the rchess package there are some helper functions like chessboardata().

dfboard <- rchess:::.chessboarddata() %>%
  select(cell, col, row, x, y, cc)

dfboard

# A tibble: 64 x 6
   cell  col     row     x     y cc   
   <chr> <chr> <int> <int> <int> <chr>
 1 a1    a         1     1     1 b    
 2 b1    b         1     2     1 w    
 3 c1    c         1     3     1 b    
 4 d1    d         1     4     1 w    
 5 e1    e         1     5     1 b    
 6 f1    f         1     6     1 w    
 7 g1    g         1     7     1 b    
 8 h1    h         1     8     1 w    
 9 a2    a         2     1     2 w    
10 b2    b         2     2     2 b    
# ... with 54 more rows
…
In this plot we need filter dfmoves by !is.na(status) so we can know what happend with every piece in at the end of the game: if a piece was caputered of or not. Then get summary across all the games.

dfsurvrates <- dfmoves %>%
  filter(!is.na(status)) %>%
  group_by(piece) %>%
  summarize(
    games = n(),
    was_captured = sum(status == "captured")
    ) %>%
  mutate(surv_rate = 1 - was_captured/games)

dfsurvrates %>%
  arrange(desc(surv_rate))

# A tibble: 32 x 4
   piece      games was_captured surv_rate
   <chr>      <int>        <int>     <dbl>
 1 Black King   433            0     1    
 2 White King   433            0     1    
 3 h2 Pawn      433          121     0.721
 4 h7 Pawn      433          148     0.658
 5 g2 Pawn      433          150     0.654
 6 g7 Pawn      433          160     0.630
 7 f2 Pawn      433          178     0.589
 8 a2 Pawn      433          183     0.577
 9 a7 Pawn      433          185     0.573
10 f7 Pawn      433          185     0.573
# ... with 22 more rows
…
