Otra mirada a las guaguas
…
Pocos paquetes llegan a la portada de los medios, no?.

Necesitaremos obviamente el paquete {guaguas}.

library(guaguas)
library(tidyverse)

guaguas

# A tibble: 845,400 x 5
    anio nombre sexo      n proporcion
   <dbl> <chr>  <chr> <dbl>      <dbl>
 1  1920 Mara  F      2130     0.104 
 2  1920 Jos   M       984     0.0483
 3  1920 Juan   M       636     0.0312
 4  1920 Luis   M       631     0.0310
 5  1920 Rosa   F       426     0.0209
 6  1920 Ana    F       340     0.0167
 7  1920 Manuel M       326     0.0160
 8  1920 Olga   F       289     0.0142
 9  1920 Carlos M       277     0.0136
10  1920 Pedro  M       269     0.0132
# ... with 845,390 more rows
…
rescale01 <- function(x) {
 (x - min(x)) / (max(x) - min(x))  
}

Seleccionamos los datos y realizamos el reescalamiento

x <- "Kevin"

dx <- guaguas %>% 
  filter(nombre == x) %>% 
  mutate(x = rescale01(anio))

dx

# A tibble: 101 x 5
   nombre  anio proporcion     n     x
   <chr>  <dbl>      <dbl> <dbl> <dbl>
 1 Kevin   1920          0     0  0   
 2 Kevin   1921          0     0  0.01
 3 Kevin   1922          0     0  0.02
 4 Kevin   1923          0     0  0.03
 5 Kevin   1924          0     0  0.04
 6 Kevin   1925          0     0  0.05
 7 Kevin   1926          0     0  0.06
 8 Kevin   1927          0     0  0.07
 9 Kevin   1928          0     0  0.08
10 Kevin   1929          0     0  0.09
# ... with 91 more rows
…
