Data, Code and Visualization: #30diasdegraficos Parte 3
…
r4ds2 <- r4ds2 %>%
  count(capitulo, palabra, sort = TRUE)

total_r4ds2 <- r4ds2 %>% 
  group_by(capitulo) %>% 
  summarize(total = sum(n))

r4ds2 <- left_join(r4ds2, total_r4ds2)

r4ds2 <- r4ds2 %>%
  bind_tf_idf(palabra, capitulo, n)

r4ds2

# A tibble: 14,529 x 7
   capitulo         palabra     n total     tf   idf tf_idf
   <chr>            <chr>   <int> <int>  <dbl> <dbl>  <dbl>
 1 3. Manejar datos r         518 15165 0.0342     0      0
 2 4. Programar     x         316 10565 0.0299     0      0
 3 2. Explorar      r         255 12505 0.0204     0      0
 4 4. Programar     r         254 10565 0.0240     0      0
 5 3. Manejar datos datos     212 15165 0.0140     0      0
 6 2. Explorar      x         202 12505 0.0162     0      0
 7 3. Manejar datos x         196 15165 0.0129     0      0
 8 3. Manejar datos n         187 15165 0.0123     0      0
 9 5. Modelar       x         185  7964 0.0232     0      0
10 6. Comunicar     r         180  7094 0.0254     0      0
# ... with 14,519 more rows
…
