#30diasdegraficos Parte 1
…
Otro clásico. El gráfico de lineas se utiliza generalmente cuando existe una variable temporal en nuestros datos. También tiene sus variaciones como los slopecharts o bumpcharts.

Los datos que utilizaremos corresponden de paises del paquete {datos}, que orignalmente pertencen al {gapminder}. Para simplificar la información agrouparemos por continente y año para obtener un promedio ponderado por la población de cada país.

continentes <- paises %>% 
  group_by(anio, continente) %>% 
  summarise(
    pib_per_capita_pond = weighted.mean(pib_per_capita, poblacion),
    esperanza_de_vida_pond = weighted.mean(esperanza_de_vida, poblacion)
  )

continentes

# A tibble: 60 x 4
# Groups:   anio [12]
    anio continente pib_per_capita_pond esperanza_de_vida_pond
   <int> <fct>                    <dbl>                  <dbl>
 1  1952 África                   1311.                   38.8
 2  1952 Américas                 8528.                   60.2
 3  1952 Asia                      806.                   42.9
 4  1952 Europa                   6097.                   64.9
 5  1952 Oceanía                 10136.                   69.2
 6  1957 África                   1445.                   40.9
 7  1957 Américas                 9098.                   62.0
 8  1957 Asia                      998.                   47.3
 9  1957 Europa                   7535.                   66.9
10  1957 Oceanía                 11192.                   70.3
# ... with 50 more rows
…
hc02 <- hchart(continentes, "line", hcaes(anio, esperanza_de_vida_pond, group = continente)) %>% 
  hc_tooltip(table = TRUE, valueDecimals = 2) %>% 
  hc_legend(layout = "proximate")

hc02

Día 3: puntos/burbujas

Seguimos con los gráficos tradicionales. El gráfico de puntos o scatter plot se utiliza generelamente para observa la relación entre dos variables continuas. Luego el gráfico se puede complementar/complejizar agregando tamaño, forma, colores a los puntos para agregar más información.

paises_2007 <- filter(paises, anio == 2007)
paises_2007

# A tibble: 142 x 6
   pais     continente  anio esperanza_de_vi~ poblacion pib_per_capita
   <fct>    <fct>      <int>            <dbl>     <int>          <dbl>
 1 Afganis~ Asia        2007             43.8  31889923           975.
 2 Albania  Europa      2007             76.4   3600523          5937.
 3 Argelia  África      2007             72.3  33333216          6223.
 4 Angola   África      2007             42.7  12420476          4797.
 5 Argenti~ Américas    2007             75.3  40301927         12779.
 6 Austral~ Oceanía     2007             81.2  20434176         34435.
 7 Austria  Europa      2007             79.8   8199783         36126.
 8 Baréin   Asia        2007             75.6    708573         29796.
 9 Banglad~ Asia        2007             64.1 150448339          1391.
10 Bélgica  Europa      2007             79.4  10392226         33693.
# ... with 132 more rows
…
