Copying the good
…
NAMES <- "Britney"
# c("Anna",  "Britney", "Whitney")

data <- babynames::babynames %>% 
  filter(name %in% NAMES) %>% 
  select(name, x = year, y = prop) %>% 
  group_by(name, x) %>% 
  summarise(y = sum(y), .groups = "drop") %>% 
  select(x, y)

data

# A tibble: 50 x 2
       x          y
   <dbl>      <dbl>
 1  1968 0.0000076 
 2  1969 0.00000397
 3  1970 0.00000546
 4  1971 0.00000913
 5  1972 0.0000149 
 6  1973 0.0000212 
 7  1974 0.0000217 
 8  1975 0.0000237 
 9  1976 0.0000401 
10  1977 0.0000486 
# ... with 40 more rows

Color is given by the year, not the y value:

data <- data %>% 
  mutate(
    # color = colorize(y, colors = viridisLite::inferno(100, begin = 0.2, end = 0.8)),
    color = colorize(x, colors = viridisLite::inferno(100, begin = 0.2, end = 0.8)),
    alpha = scales::rescale(sqrt(y), to = c(0.05, .75)),
    alpha = round(alpha, 2),
    color = purrr::map2_chr(color, alpha, shades::opacity)
  )

data

# A tibble: 50 x 4
       x          y color     alpha
   <dbl>      <dbl> <chr>     <dbl>
 1  1968 0.0000076  #420A6812  0.07
 2  1969 0.00000397 #470B6A0D  0.05
 3  1970 0.00000546 #4C0C6B0F  0.06
 4  1971 0.00000913 #510E6C12  0.07
 5  1972 0.0000149  #560F6D17  0.09
 6  1973 0.0000212  #5B126E1A  0.1 
 7  1974 0.0000217  #65156E1C  0.11
 8  1975 0.0000237  #65156E1C  0.11
 9  1976 0.0000401  #6A176E24  0.14
10  1977 0.0000486  #6F196E26  0.15
# ... with 40 more rows
…
