Data, Code and Visualization: Adding motion to choropleths
…
URL <- "http://graphics8.nytimes.com/newsgraphics/2016/01/15/drug-deaths/c23ba79c9c9599a103a8d60e2329be1a9b7d6994/data.json"

data("uscountygeojson")
data("unemployment")

data <-  fromJSON(URL) %>% 
  tbl_df() %>% 
  gather(year, value, -fips) %>% 
  mutate(year = sub("^y", "", year),
         value = ifelse(is.na(value), 0, value))

data

# A tibble: 40,833 x 3
   fips  year  value
   <chr> <chr> <dbl>
 1 01001 2002      1
 2 01003 2002      2
 3 01005 2002      0
 4 01007 2002      1
 5 01009 2002      2
 6 01011 2002      0
 7 01013 2002      0
 8 01015 2002      1
 9 01017 2002      1
10 01019 2002      1
# ... with 40,823 more rows
…
