Data, Code and Visualization: #30diasdegraficos Parte 1
…
Otro clásico. El gráfico de lineas se utiliza generalmente cuando existe una variable temporal en nuestros datos. También tiene sus variaciones como los slopecharts o bumpcharts.

Los datos que utilizaremos corresponden de paises del paquete {datos}, que orignalmente pertencen al {gapminder}. Para simplificar la información agrouparemos por continente y año para obtener un promedio ponderado por la población de cada país.

continentes <- paises %>% 
  group_by(anio, continente) %>% 
  summarise(
    pib_per_capita_pond = weighted.mean(pib_per_capita, poblacion),
    esperanza_de_vida_pond = weighted.mean(esperanza_de_vida, poblacion)
  )

continentes

# A tibble: 60 x 4
# Groups:   anio [12]
    anio continente pib_per_capita_pond esperanza_de_vida_pond
   <int> <fct>                    <dbl>                  <dbl>
 1  1952 África                   1311.                   38.8
 2  1952 Américas                 8528.                   60.2
 3  1952 Asia                      806.                   42.9
 4  1952 Europa                   6097.                   64.9
 5  1952 Oceanía                 10136.                   69.2
 6  1957 África                   1445.                   40.9
 7  1957 Américas                 9098.                   62.0
 8  1957 Asia                      998.                   47.3
 9  1957 Europa                   7535.                   66.9
10  1957 Oceanía                 11192.                   70.3
# ... with 50 more rows
…
hc02 <- hchart(continentes, "line", hcaes(anio, esperanza_de_vida_pond, group = continente)) %>% 
  hc_tooltip(table = TRUE, valueDecimals = 2) %>% 
  hc_legend(layout = "proximate")

hc02

Día 3: puntos/burbujas

Seguimos con los gráficos tradicionales. El gráfico de puntos o scatter plot se utiliza generelamente para observa la relación entre dos variables continuas. Luego el gráfico se puede complementar/complejizar agregando tamaño, forma, colores a los puntos para agregar más información.

paises_2007 <- filter(paises, anio == 2007)
paises_2007

# A tibble: 142 x 6
   pais     continente  anio esperanza_de_vi~ poblacion pib_per_capita
   <fct>    <fct>      <int>            <dbl>     <int>          <dbl>
 1 Afganis~ Asia        2007             43.8  31889923           975.
 2 Albania  Europa      2007             76.4   3600523          5937.
 3 Argelia  África      2007             72.3  33333216          6223.
 4 Angola   África      2007             42.7  12420476          4797.
 5 Argenti~ Américas    2007             75.3  40301927         12779.
 6 Austral~ Oceanía     2007             81.2  20434176         34435.
 7 Austria  Europa      2007             79.8   8199783         36126.
 8 Baréin   Asia        2007             75.6    708573         29796.
 9 Banglad~ Asia        2007             64.1 150448339          1391.
10 Bélgica  Europa      2007             79.4  10392226         33693.
# ... with 132 more rows
…
# transformar el grupo al mes
dd07_02 <- dd07_02 %>% 
  mutate(
    fecha = ymd(paste("2003", group, 1, paste = "-")),
    mes_fecha = fct_inorder(months(fecha))
  )

dd07_02

# A tibble: 3,031 x 7
       x     l     h group density fecha      mes_fecha
   <dbl> <dbl> <dbl> <dbl>   <dbl> <date>     <fct>    
 1  8.91     1  1.01     1   0     2003-01-01 enero    
 2  9.10     1  1.02     1   0     2003-01-01 enero    
 3  9.30     1  1.02     1   0.001 2003-01-01 enero    
 4  9.49     1  1.02     1   0.001 2003-01-01 enero    
 5  9.68     1  1.03     1   0.001 2003-01-01 enero    
 6  9.87     1  1.04     1   0.001 2003-01-01 enero    
 7 10.1      1  1.04     1   0.001 2003-01-01 enero    
 8 10.3      1  1.05     1   0.001 2003-01-01 enero    
 9 10.5      1  1.06     1   0.002 2003-01-01 enero    
10 10.6      1  1.07     1   0.002 2003-01-01 enero    
# ... with 3,021 more rows
…
hc07

Dia 8: contorno

¡Contornos! Este gráfico no es muy estándar, usualmente está asociado a información (geo)espacial, topográfica, o información bivariada cunado las dos variables son continuas.

Usaremos los datos volcano que está en formato matriz, la cual usando la función melt del paquete reshape lo pasaremos a formato data frame. Luego con la función geom_contour de {ggplot2} dibujaremos los contornos de nivel del volcan. Notar que el data set de entrada son puntos x e y y un valor z, el cual se generan los contornos en función de estas tres variables; graficaremos el grid de puntos para recordar que estos son los valores de entrada.

volcano3d <- as_tibble(reshape2::melt(volcano))
names(volcano3d) <- c("x", "y", "z")

volcano3d

# A tibble: 5,307 x 3
       x     y     z
   <int> <int> <dbl>
 1     1     1   100
 2     2     1   101
 3     3     1   102
 4     4     1   103
 5     5     1   104
 6     6     1   105
 7     7     1   105
 8     8     1   106
 9     9     1   107
10    10     1   108
# ... with 5,297 more rows
…
